[
  {
    "name":"19th Century"
  },
  {
    "name":"20th Century"
  },
  {
    "name":"Art by African Americans"
  },
  {
    "name":"Art by Asian Americans"
  },
  {
    "name":"Contemporary Art"
  },
  {
    "name":"Contemporary Craft and Decorative Arts"
  },
  {
    "name":"Early American Art"
  },
  {
    "name":"Folk and Self-Taught Art"
  },
  {
    "name":"Latino Art"
  },
  {
    "name":"Photography"
  },
  {
    "name":"Sculpture"
  },
  {
    "name":"Time-Based Media"
  },
  {
    "name":"Works on Paper"
  }
]
