[
    {
        "name": "Mura"
    },
    {
        "name": "States of Mind"
    },
    {
        "name": "Appalshop, Inc. Photo Documentary Survey Project"
    },
    {
        "name": "Kansas Documentary Survey Project"
    },
    {
        "name": "The Pond"
    },
    {
        "name": "Kentucky Documentary Photography Survey"
    },
    {
        "name": "Notations in Passing"
    },
    {
        "name": "Autolandscape Series"
    },
    {
        "name": "Long Beach Documentary Survey Project"
    },
    {
        "name": "In Remembrance of Daniel Chester French"
    },
    {
        "name": "Photo League Feature Group Project Harlem Document"
    },
    {
        "name": "Obstacles: Environmental Impediments to Blind People"
    },
    {
        "name": "Circle of Fear"
    },
    {
        "name": "Portfolio of Eight Washington Photographers"
    },
    {
        "name": "Tengo Casi 500 A\u00f1os: Africa's Legacy in Central America"
    },
    {
        "name": "U.S. Geographical Survey West of the 100th Meridian (Wheeler Survey)"
    },
    {
        "name": "Stories from the Bible"
    },
    {
        "name": "Spanish Harlem"
    },
    {
        "name": "In Our Time: Covers for a Small Library After the Life for the Most Part"
    },
    {
        "name": "Venice, California Documentary Survey Project"
    },
    {
        "name": "Missing Piece"
    },
    {
        "name": "The American Monument"
    },
    {
        "name": "The Jolly Corner"
    },
    {
        "name": "Ichiboku"
    },
    {
        "name": "Unknown Distances\/Undiscovered Islands"
    },
    {
        "name": "La Tempestad"
    },
    {
        "name": "Old New York"
    },
    {
        "name": "Robert Kennedy\u2019s Campaign Office, New York"
    },
    {
        "name": "Untitled from the series Blackface"
    },
    {
        "name": "Untitled from the series Wild West"
    },
    {
        "name": "Chevrolet Bel Air, 1955 (model car, 1:18 scale)"
    }
]