[
  {
    "field_biography": "<p>Pop culture enthusiast who moonlights as the head of External Affairs and Digital Strategies<\/p>\r\n",
    "summary": "",
    "field_job_title": "Chief, External Affairs & Digital Strategies",
    "field_searchable_profile": false,
    "field_first_name": "Sara",
    "field_last_name": "Snyder",
    "uid": "4",
    "user_picture": {
      "title": "Sara Snyder profile picture",
      "alt": "A photograph of Sara Snyder",
      "download_src": "https:\/\/s3.amazonaws.com\/dev.saam.media\/files\/user\/weilerl\/snyder-SAAM.jpg",
      "id": "108386"
    }
  },
  {
    "field_biography": null,
    "summary": null,
    "field_job_title": null,
    "field_searchable_profile": false,
    "field_first_name": "Kaylin",
    "field_last_name": "Lapan",
    "uid": "5"
  },
  {
    "field_biography": null,
    "summary": null,
    "field_job_title": "Writer",
    "field_searchable_profile": false,
    "field_first_name": "Howard",
    "field_last_name": "Kaplan",
    "uid": "6",
    "user_picture": {
      "title": "Howard Kaplan profile picture",
      "alt": "A photograph of Howard Kaplan on a plane.",
      "download_src": "https:\/\/s3.amazonaws.com\/dev.saam.media\/files\/user\/weilerl\/howard-kap.jpg",
      "id": "106179"
    }
  },
  {
    "field_biography": null,
    "summary": null,
    "field_job_title": "Social Media and Digital Content Specialist",
    "field_searchable_profile": false,
    "field_first_name": "Amy",
    "field_last_name": "Fox",
    "uid": "7"
  },
  {
    "field_biography": "<p>Web designer and writer, Jeff Gates retired from the Smithsonian in 2019.<\/p>\r\n",
    "summary": "",
    "field_job_title": "Lead Producer, New Media Initiatives",
    "field_searchable_profile": false,
    "field_first_name": "Jeff",
    "field_last_name": "Gates",
    "uid": "9",
    "user_picture": {
      "title": "Jeff Gates profile picture",
      "alt": "Jeff Gates",
      "download_src": "https:\/\/s3.amazonaws.com\/dev.saam.media\/files\/user\/weilerl\/jeffgates3.jpg",
      "id": "106180"
    }
  },
  {
    "field_biography": "<p>Public programs assistant with a passion for film.<\/p>\r\n",
    "summary": "",
    "field_job_title": "Public Programs Assistant",
    "field_searchable_profile": false,
    "field_first_name": "Ryan",
    "field_last_name": "Linthicum",
    "uid": "10",
    "user_picture": {
      "title": "Ryan Linthicum profile picture",
      "alt": "A photograph of a woman with short brown hair and glasses. ",
      "download_src": "https:\/\/s3.amazonaws.com\/dev.saam.media\/files\/user\/weilerl\/IMG_9767-photo-by-libby-weiler.jpg",
      "id": "105962"
    }
  },
  {
    "field_biography": "<p>Museum educator who manages SAAM\u2019s national summer teacher institutes.<\/p>\r\n",
    "summary": "",
    "field_job_title": "Teacher Institutes Educator",
    "field_searchable_profile": false,
    "field_first_name": "Phoebe",
    "field_last_name": "Hillemann",
    "uid": "12",
    "user_picture": {
      "title": "Phoebe Hillemann profile picture",
      "alt": "A photograph of Phoebe Hillemann",
      "download_src": "https:\/\/s3.amazonaws.com\/dev.saam.media\/files\/user\/weilerl\/Phoebe%20headshot.jpg",
      "id": "106190"
    }
  },
  {
    "field_biography": null,
    "summary": null,
    "field_job_title": "Luce Program Coordinator",
    "field_searchable_profile": false,
    "field_first_name": "Bridget",
    "field_last_name": "Callahan",
    "uid": "13"
  },
  {
    "field_biography": null,
    "summary": null,
    "field_job_title": "External Affairs and Digital Strategies Assistant",
    "field_searchable_profile": false,
    "field_first_name": "Lauren",
    "field_last_name": "Kolodkin",
    "uid": "14",
    "user_picture": {
      "title": "Lauren Kolodkin profile picture",
      "alt": "This is an image of Lauren Kolodkin.",
      "download_src": "https:\/\/s3.amazonaws.com\/dev.saam.media\/files\/user\/weilerl\/Lauren-Kolodkin.jpg",
      "id": "106178"
    }
  },
  {
    "field_biography": null,
    "summary": null,
    "field_job_title": "Chief of Communications and Public Affairs",
    "field_searchable_profile": false,
    "field_first_name": "Laura",
    "field_last_name": "Baptiste",
    "uid": "15"
  },
  {
    "field_biography": null,
    "summary": null,
    "field_job_title": "Public Programs Coordinator",
    "field_searchable_profile": false,
    "field_first_name": "Gloria",
    "field_last_name": "Kenyon",
    "uid": "16",
    "user_picture": {
      "title": "Gloria Kenyon profile picture",
      "alt": "An image of Gloria Kenyon.",
      "download_src": "https:\/\/s3.amazonaws.com\/dev.saam.media\/files\/user\/weilerl\/kenyon-gloria.jpg",
      "id": "106195"
    }
  },
  {
    "field_biography": null,
    "summary": null,
    "field_job_title": "Program Specialist for the Luce Foundation Center",
    "field_searchable_profile": false,
    "field_first_name": "Anne",
    "field_last_name": "Wilsey ",
    "uid": "17"
  },
  {
    "field_biography": null,
    "summary": null,
    "field_job_title": null,
    "field_searchable_profile": false,
    "field_first_name": "Alida",
    "field_last_name": null,
    "uid": "18"
  },
  {
    "field_biography": "<p>Artist and photographer who manages web content for the museum.<\/p>\r\n",
    "summary": "",
    "field_job_title": "IT Specialist - External Affairs and Digital Strategies",
    "field_searchable_profile": false,
    "field_first_name": "Libby",
    "field_last_name": "Weiler",
    "uid": "24"
  },
  {
    "field_biography": "<p>Develops digital learning experiences and educational content to engage students, teachers, and adult audiences.<\/p>\r\n",
    "summary": "",
    "field_job_title": "Digital Interpretation Specialist",
    "field_searchable_profile": false,
    "field_first_name": "Anne",
    "field_last_name": "Showalter",
    "uid": "41",
    "user_picture": {
      "title": "Anne Showalter profile picture",
      "alt": "A photograph of Anne Showalter in front of Superhighway. ",
      "download_src": "https:\/\/s3.amazonaws.com\/dev.saam.media\/files\/user\/weilerl\/Anne%20Showalter_superhighway.jpg",
      "id": "106185"
    }
  },
  {
    "field_biography": "<p>Sarah Newman is the James Dicke Curator of Contemporary Art at the Smithsonian American Art Museum. She joined the museum staff in September 2016. Her responsibilities include research, exhibitions, and acquisitions related to the museum\u2019s collection of contemporary art. Her research interests include the relationship between contemporary art and design, and the art of the 1980s. <a href=\"\/press\/staff-bios\/newman\">See full staff bio<\/a>.<\/p>\r\n",
    "summary": "Sarah Newman is the James Dicke Curator of Contemporary Art at the Smithsonian American Art Museum.",
    "field_job_title": "James Dicke Curator of Contemporary Art",
    "field_searchable_profile": true,
    "field_first_name": "Sarah",
    "field_last_name": "Newman",
    "uid": "116",
    "user_picture": {
      "title": "Sarah Newman profile picture",
      "alt": "Photo of Sarah Newman by John DeWolf.",
      "download_src": "https:\/\/s3.amazonaws.com\/dev.saam.media\/files\/user\/weilerl\/Sarah_Newman_by_John_deWolf.jpg",
      "id": "106191"
    }
  },
  {
    "field_biography": "<p>Nora Atkinson is the&nbsp;Fleur and Charles Bresler Curator-in-Charge for the Renwick Gallery of the Smithsonian American Art Museum. She joined the museum\u2019s staff in March 2014. Atkinson was part of the team responsible for the recent renovation of the Renwick Gallery, the museum\u2019s branch for contemporary craft and decorative art. She acquires artworks for the museum\u2019s permanent collection and organizes exhibitions at the Renwick Gallery.&nbsp;<a href=\"\/press\/staff-bios\/atkinson\">See full staff bio<\/a>.<\/p>\r\n",
    "summary": "Nora Atkinson is the Lloyd Herman Curator of Craft at the Smithsonian American Art Museum.",
    "field_job_title": "The Fleur and Charles Bresler Curator-in-Charge, Renwick Gallery",
    "field_searchable_profile": true,
    "field_first_name": "Nora",
    "field_last_name": "Atkinson",
    "uid": "117",
    "user_picture": {
      "title": "Nora Atkinson profile picture",
      "alt": "Photograph of Nora Atkinson by Libby Weiler.",
      "download_src": "https:\/\/s3.amazonaws.com\/dev.saam.media\/files\/user\/weilerl\/Nora-Atkinson-by-libby-weiler.jpg",
      "id": "106189"
    }
  },
  {
    "field_biography": "<p>John Jacob is the museum\u2019s McEvoy Family Curator for Photography; he joined the curatorial staff in July 2015. His responsibilities include research, exhibitions and acquisitions related to the museum\u2019s collection. His research interests include American vernacular photography, social history and women photographers. <a href=\"\/press\/staff-bios\/jacob\">See full staff bio<\/a>.<\/p>\r\n",
    "summary": "",
    "field_job_title": "McEvoy Family Curator for Photography",
    "field_searchable_profile": true,
    "field_first_name": "John",
    "field_last_name": "Jacob",
    "uid": "118",
    "user_picture": {
      "title": "John Jacob profile picture",
      "alt": "Photography of John Jacob by Friedrich Nill.",
      "download_src": "https:\/\/s3.amazonaws.com\/dev.saam.media\/files\/user\/weilerl\/john_jacob_photo_by_friedrich_nill.jpg",
      "id": "106186"
    }
  },
  {
    "field_biography": "<p>Leslie Umberger is the curator of folk and self-taught art at the Smithsonian American Art Museum. She joined the museum staff in September 2012. Her research interests include artists who navigated their own artistic path, often in oppressive environments. She has specialized also in artists who transformed their personal realms into comprehensive art environments, often over extended periods of time. Umberger is known for situating such artists within specific cultural contexts and establishing meaningful frameworks for the art they have made. <a href=\"\/press\/staff-bios\/umberger\">See full staff bio<\/a>.&nbsp;<\/p>\r\n",
    "summary": "Leslie Umberger is the curator of folk and self-taught art at the Smithsonian American Art Museum.",
    "field_job_title": "Curator (Folk and Self-Taught Art)",
    "field_searchable_profile": true,
    "field_first_name": "Leslie",
    "field_last_name": "Umberger",
    "uid": "119",
    "user_picture": {
      "title": "Leslie Umberger profile picture",
      "alt": "A photograph of a woman standing in front of artwork.",
      "download_src": "https:\/\/s3.amazonaws.com\/dev.saam.media\/files\/user\/weilerl\/Umberger.jpg",
      "id": "106942"
    }
  },
  {
    "field_biography": "<p>Melissa Ho is the Smithsonian American Art Museum\u2019s curator of 20th-century art; she joined the museum\u2019s staff in September 2016. She is responsible for research, acquisitions and exhibitions related to the museum\u2019s collections, focusing on art made since 1945. Ho is particularly concerned with studying the connections between artistic practice and social and historical conditions. She is also interested in debates surrounding abstraction, conceptualism and experimental art. <a href=\"\/press\/staff-bios\/ho\">See full staff bio<\/a>.<\/p>\r\n",
    "summary": "Melissa Ho is the Smithsonian American Art Museum\u2019s curator of 20th-century art; she joined the museum\u2019s staff in September 2016.",
    "field_job_title": "Curator (20th-Century Art)",
    "field_searchable_profile": true,
    "field_first_name": "Melissa",
    "field_last_name": "Ho",
    "uid": "120",
    "user_picture": {
      "title": "Melissa Ho profile picture",
      "alt": "A photograph of Melissa Ho by Jeff Elkins",
      "download_src": "https:\/\/s3.amazonaws.com\/dev.saam.media\/files\/user\/weilerl\/melissa_ho_by_jeff_elkins.jpg",
      "id": "106188"
    }
  },
  {
    "field_biography": "<p>Virginia Mecklenburg is chief curator at the Smithsonian American Art Museum. She oversees the museum\u2019s curatorial and conservation staffs and its acquisitions and collections programs. She has been a curator of painting and sculpture at the museum since 1979. Her research interests include American art and culture, Ashcan art, New Deal art, American abstraction, pop art and Latino art. <a href=\"\/press\/staff-bios\/mecklenburg\">See full staff bio<\/a>.&nbsp;<\/p>\r\n",
    "summary": "Virginia Mecklenburg is chief curator at the Smithsonian American Art Museum.",
    "field_job_title": "Chief Curator",
    "field_searchable_profile": true,
    "field_first_name": "Virginia",
    "field_last_name": "Mecklenburg",
    "uid": "121",
    "user_picture": {
      "title": "Virginia Mecklenburg profile picture",
      "alt": "This is a photograph of Virginia Mecklenburg in front of an Edward Hopper painting.",
      "download_src": "https:\/\/s3.amazonaws.com\/dev.saam.media\/files\/user\/weilerl\/virginia_mecklenburg.jpg",
      "id": "106192"
    }
  },
  {
    "field_biography": "<p>Karen Lemmey is the Smithsonian American Art Museum\u2019s curator of sculpture; she joined the museum\u2019s staff in 2012. Lemmey is responsible for research, exhibitions and acquisitions related to the museum\u2019s extensive sculpture collection, which is the largest collection of American sculpture in the world. Her research interests include public art and monuments, the history of materials and methods, American artist colonies in 19th-century Italy, the depiction of race in American sculpture, the history of sculpture conservation, and direct carving. <a href=\"\/press\/staff-bios\/lemmey\">See full staff bio<\/a>.<\/p>\r\n",
    "summary": "Karen Lemmey is the Smithsonian American Art Museum\u2019s curator of sculpture; she joined the museum\u2019s staff in 2012.",
    "field_job_title": "The Lucy S. Rhame Curator of Sculpture",
    "field_searchable_profile": true,
    "field_first_name": "Karen",
    "field_last_name": "Lemmey",
    "uid": "122",
    "user_picture": {
      "title": "Karen Lemmey profile picture",
      "alt": "Photograph of Karen Lemmey by Bruce Schwarz",
      "download_src": "https:\/\/s3.amazonaws.com\/dev.saam.media\/files\/user\/weilerl\/Lemmey%20photo_by_Bruce_Schwarz.jpg",
      "id": "106187"
    }
  },
  {
    "field_biography": "<p>Crawford Alexander Mann III is the curator of prints and drawings at the Smithsonian American Art Museum; he joined the museum\u2019s staff in April 2017. Mann\u2019s responsibilities include research, exhibitions, and acquisitions related to the museum\u2019s collection of approximately 25,000 prints, drawings, and watercolors dating from the eighteenth century to the present. His research interests include Italian-American artistic exchange on the Grand Tour, artists of the American South, the impact of East Asian watercolor and printmaking traditions on American art, and the evolving visual constructions of masculinity, femininity, and gender. <a href=\"\/press\/staff-bios\/mann\">See full staff bio<\/a>.&nbsp;<\/p>\r\n",
    "summary": "Crawford Alexander Mann III is the curator of prints and drawings at the Smithsonian American Art Museum; he joined the museum\u2019s staff in April 2017.",
    "field_job_title": "Curator (Prints and Drawings)",
    "field_searchable_profile": true,
    "field_first_name": "Crawford Alexander",
    "field_last_name": "Mann III",
    "uid": "123",
    "user_picture": {
      "title": "Crawford Alexander Mann III profile picture",
      "alt": "A photograph of Alex Man by Libby Weiler.",
      "download_src": "https:\/\/s3.amazonaws.com\/dev.saam.media\/files\/user\/weilerl\/Alexander%20Mann.jpg",
      "id": "106184"
    }
  },
  {
    "field_biography": "<p>E. Carmen Ramos is the Smithsonian American Art Museum\u2019s acting chief curator and curator of Latinx&nbsp;art; she joined the museum\u2019s staff in 2010. Since then, she has dramatically expanded the museum\u2019s pioneering collection of Latinx&nbsp;art with an eye toward capturing the broad aesthetic and regional range of the field. Her research interests include modern and contemporary Latinx, Latin American and African American art. <a href=\"\/press\/staff-bios\/ramos\">See full staff bio<\/a>.&nbsp;<\/p>\r\n",
    "summary": "E. Carmen Ramos is the Smithsonian American Art Museum\u2019s acting chief curator and curator of Latinx art; she joined the museum\u2019s staff in 2010.",
    "field_job_title": "Acting Chief Curator and Curator of Latinx Art",
    "field_searchable_profile": true,
    "field_first_name": "E. Carmen",
    "field_last_name": "Ramos",
    "uid": "124",
    "user_picture": {
      "title": "E. Carmen Ramos profile picture",
      "alt": "A photograph of Carmen Ramos by Ross Whitaker",
      "download_src": "https:\/\/s3.amazonaws.com\/dev.saam.media\/files\/user\/weilerl\/e_carmen_ramos_photo_by_ross_whitaker.jpg",
      "id": "106182"
    }
  },
  {
    "field_biography": "<p>Eleanor Jones Harvey is a senior curator at the Smithsonian American Art Museum. Her research interests include eighteenth-, nineteenth- and early twentieth-century American art, notably landscape painting, southwestern abstraction and Texas art. Her most recent exhibition, <a href=\"\/exhibitions\/humboldt\"><em>Alexander von Humboldt and the United States: Art, Nature, and Culture<\/em><\/a> (2020), considers how deeply entwined the heralded naturalist\u2019s ideas were with America\u2019s emerging identity, grounded in an appreciation of the landscape.<\/p>\r\n\r\n<p>Previously, Harvey organized the critically acclaimed <a href=\"\/exhibitions\/civil-war\"><em>The Civil War and American Art<\/em><\/a> (2012), <a href=\"\/exhibitions\/art-forum\"><em>Variations on America: Masterworks from the American Art Forum Collections<\/em><\/a> (2007) and <a href=\"\/exhibitions\/halff\"><em>An Impressionist Sensibility: The Halff Collection<\/em><\/a> (2006).<\/p>\r\n\r\n<p>Harvey joined the museum\u2019s staff in 2003 as the curator for the museum\u2019s Luce Foundation Center for American Art, an innovative visible storage study center. She served as chief curator from 2003 to 2012. In 2008, she was a fellow at the Center for Curatorial Leadership in New York City.<\/p>\r\n\r\n<p>From 1992 to 2002, Harvey was curator of American art at the Dallas Museum of Art, where she organized several exhibitions, including <em>The Voyage of<\/em> The Icebergs: <em>Frederic Church\u2019s Arctic Masterpiece<\/em> (2002), <em>Thomas Moran and the Spirit of Place<\/em> (2001) and <em>The Painted Sketch: American Impressions from Nature, 1830\u20131880<\/em> (1998).<\/p>\r\n\r\n<p><a href=\"\/books\/civil-war\"><em>The Civil War and American Art<\/em><\/a> won the 2012 Southeastern Book Festival Award for Best Art or Photography Book and the 2014 Smithsonian Secretary\u2019s Distinguished Research Award. Her essay on artist Sanford R. Gifford appeared in the exhibition catalogue <em>Hudson River School Vision: The Landscapes of Sanford R. Gifford<\/em> (2003). The book <em>The Painted Sketch: American Impressions from Nature, 1830\u20131880<\/em> (1998), based on Harvey\u2019s dissertation, won the 1999 Henry Russell Hitchcock Award from the Victorian Society of America as the most significant contribution to nineteenth-century fine arts studies.<\/p>\r\n\r\n<p>She holds a bachelor\u2019s degree with distinction from the University of Virginia in 1983, and she earned both a master\u2019s degree (1985) and doctorate in the history of art (1998) from Yale University.&nbsp;<a href=\"\/press\/staff-bios\/harvey\">See full staff bio<\/a>.&nbsp;<\/p>\r\n",
    "summary": "Eleanor Jones Harvey is a senior curator at the Smithsonian American Art Museum.",
    "field_job_title": "Senior Curator (19th-Century Art)",
    "field_searchable_profile": true,
    "field_first_name": "Eleanor",
    "field_last_name": "Jones Harvey",
    "uid": "125",
    "user_picture": {
      "title": "Eleanor Jones Harvey profile picture",
      "alt": "A photograph of Eleanor Harvey ",
      "download_src": "https:\/\/s3.amazonaws.com\/dev.saam.media\/files\/user\/weilerl\/IMG_0939-photo-by-libby-weiler.jpg",
      "id": "106533"
    }
  },
  {
    "field_biography": "<p>Abraham Thomas was The Fleur and Charles Bresler Curator-In-Charge for the Renwick Gallery, the Smithsonian American Art Museum\u2019s branch for contemporary craft and decorative art from 2016 through 2018.&nbsp;<\/p>\r\n",
    "summary": "Abraham Thomas is The Fleur and Charles Bresler Curator-In-Charge for the Renwick Gallery, the Smithsonian American Art Museum\u2019s branch for contemporary craft and decorative art. ",
    "field_job_title": "The Fleur and Charles Bresler Curator-In-Charge, Renwick Gallery",
    "field_searchable_profile": true,
    "field_first_name": "Abraham",
    "field_last_name": "Thomas",
    "uid": "126",
    "user_picture": {
      "title": "Abraham Thomas profile picture",
      "alt": "A photograph of Abraham Thomas by Pepe Gomez",
      "download_src": "https:\/\/s3.amazonaws.com\/dev.saam.media\/files\/user\/weilerl\/abraham_thomas_by_pepe_gomez.jpg",
      "id": "106183"
    }
  },
  {
    "field_biography": null,
    "summary": null,
    "field_job_title": "Luce Foundation Center Program Specialist",
    "field_searchable_profile": false,
    "field_first_name": "Jessica",
    "field_last_name": "McFadden",
    "uid": "127",
    "user_picture": {
      "title": "Jessica McFadden profile picture",
      "alt": "This is a photo of Jessica McFadden",
      "download_src": "https:\/\/s3.amazonaws.com\/dev.saam.media\/files\/user\/McFaddenJ\/Electronic%20Superhighway%203.jpg",
      "id": "105487"
    }
  },
  {
    "field_biography": "<p>IT Specialist and unofficial museum choreographer<\/p>\r\n",
    "summary": "",
    "field_job_title": "IT Specialist",
    "field_searchable_profile": false,
    "field_first_name": "Michael",
    "field_last_name": "Lewis",
    "uid": "129",
    "user_picture": {
      "title": "Michael Lewis profile picture",
      "alt": "This is a picture of Mike Lewis at the Renwick Gallery.",
      "download_src": "https:\/\/s3.amazonaws.com\/dev.saam.media\/files\/user\/weilerl\/lewismike_0.JPG",
      "id": "96715"
    }
  },
  {
    "field_biography": "<p>Saisha Grayson is the curator of time-based media at the Smithsonian American Art Museum. She joined the museum staff in March 2018. Her responsibilities include research, exhibitions and acquisitions related to the museum\u2019s distinguished collection of time-based media arts. Her research interests include contemporary American art as well as medieval art, film studies, feminist theory and political science. <a href=\"\/press\/staff-bios\/grayson\">See full staff bio<\/a>.<\/p>\r\n",
    "summary": "",
    "field_job_title": "Curator of Time-Based Media",
    "field_searchable_profile": true,
    "field_first_name": "Saisha",
    "field_last_name": "Grayson",
    "uid": "135",
    "user_picture": {
      "title": "Saisha Grayson profile picture",
      "alt": "This is a photograph of curator Saisha Grayson",
      "download_src": "https:\/\/s3.amazonaws.com\/dev.saam.media\/files\/user\/weilerl\/Saisha-Grayson.jpg",
      "id": "96792"
    }
  },
  {
    "field_biography": "<p>Communications specialist who manages press for SAAM\u2019s exhibitions.<\/p>\r\n",
    "summary": "",
    "field_job_title": "Public Affairs Specialist",
    "field_searchable_profile": false,
    "field_first_name": "Angelica",
    "field_last_name": "Aboulhosn",
    "uid": "136",
    "user_picture": {
      "title": "Angelica Aboulhosn profile picture",
      "alt": "A photograph of Angelica Aboulhosn",
      "download_src": "https:\/\/s3.amazonaws.com\/dev.saam.media\/files\/user\/weilerl\/angelicabioimage.jpeg",
      "id": "96965"
    }
  },
  {
    "field_biography": null,
    "summary": null,
    "field_job_title": "MTO Intern",
    "field_searchable_profile": false,
    "field_first_name": "Miyah",
    "field_last_name": "Powe",
    "uid": "137"
  },
  {
    "field_biography": "<p>Stephanie Stebich (pronounced STEE-BISH) is responsible for the nation\u2019s premier collection of American art and major exhibition, research, publication, education and digital-media programs at the museum and its Renwick Gallery. She was named director of the Smithsonian American Art Museum in January 2017 and began work April 3. She also is a trustee of the American Alliance of Museums and chairs its global steering committee. See <a href=\"\/press\/staff-bios\/stebich\">full staff bio<\/a>.<\/p>\r\n",
    "summary": "Stephanie Stebich was named director of the Smithsonian American Art Museum in January 2017 and began work April 3. She is responsible for the nation\u2019s premier collection of American art and major exhibition, research, publication, education and digital-media programs at the museum and its Renwick Gallery.",
    "field_job_title": "The Margaret and Terry Stent Director, Smithsonian American Art Museum and Renwick Gallery",
    "field_searchable_profile": true,
    "field_first_name": "Stephanie",
    "field_last_name": "Stebich",
    "uid": "142",
    "user_picture": {
      "title": "Stephanie Stebich profile picture",
      "alt": "\u00a0Stephanie Stebich, SAAM's Margaret and Terry Stent Direction in the museum's Lincoln Gallery. Photo by Gene Young.\u00a0",
      "download_src": "https:\/\/s3.amazonaws.com\/dev.saam.media\/files\/user\/weilerl\/Stephanie-Stebich.jpg",
      "id": "97079"
    }
  },
  {
    "field_biography": "<p>Video editor by day, and SAAM's resident hockey fan at all other times.<\/p>\r\n",
    "summary": "",
    "field_job_title": "Video Assistant",
    "field_searchable_profile": false,
    "field_first_name": "Kari",
    "field_last_name": "Jones",
    "uid": "144",
    "user_picture": {
      "title": "Kari Jones profile picture",
      "alt": "This is an image of a woman next to the Stanley Cup with the capital in the background.",
      "download_src": "https:\/\/s3.amazonaws.com\/dev.saam.media\/files\/user\/weilerl\/karijones.jpg",
      "id": "97349"
    }
  },
  {
    "field_biography": null,
    "summary": null,
    "field_job_title": "Lunder Conservation Center Program Manager",
    "field_searchable_profile": false,
    "field_first_name": "Laura",
    "field_last_name": "Hoffman",
    "uid": "148"
  },
  {
    "field_biography": "<p>Kate Maynor is the Paper Conservator at SAAM and the Renwick Gallery.&nbsp;<\/p>\r\n",
    "summary": "Kate Maynor is the Paper Conservator at SAAM and the Renwick Gallery.\u00a0",
    "field_job_title": "Paper Conservator",
    "field_searchable_profile": false,
    "field_first_name": "Catherine",
    "field_last_name": "Maynor",
    "uid": "198",
    "user_picture": {
      "title": "Catherine Maynor profile picture",
      "alt": "A woman standing in front of an artwork.",
      "download_src": "https:\/\/s3.amazonaws.com\/dev.saam.media\/files\/user\/weilerl\/LHoffman-Kate%20Maynor-headshot1.jpg",
      "id": "100663"
    }
  },
  {
    "field_biography": "<p>Museum educator and public historian who manages SAAM\u2019s docent program.<\/p>\r\n",
    "summary": "",
    "field_job_title": "Docent Coordinator",
    "field_searchable_profile": false,
    "field_first_name": "Geoffrey",
    "field_last_name": "Cohrs",
    "uid": "201",
    "user_picture": {
      "title": "Geoffrey Cohrs profile picture",
      "alt": "A picture of a man with a green shirt and tie on standing inside a room.",
      "download_src": "https:\/\/s3.amazonaws.com\/dev.saam.media\/files\/user\/weilerl\/Geoff.JPG",
      "id": "100768"
    }
  },
  {
    "field_biography": null,
    "summary": null,
    "field_job_title": "Curatorial Assistant",
    "field_searchable_profile": false,
    "field_first_name": "Laura",
    "field_last_name": "Augustin",
    "uid": "202"
  },
  {
    "field_biography": null,
    "summary": null,
    "field_job_title": "Deputy Education Chair, Head of Interpretation and Audience Research",
    "field_searchable_profile": false,
    "field_first_name": "Joanna",
    "field_last_name": "Marsh",
    "uid": "226",
    "user_picture": {
      "title": "Joanna Marsh profile picture",
      "alt": "A photograph of a woman sitting down on a bench in a gallery with a red sweater on and a black artwork behind her.",
      "download_src": "https:\/\/s3.amazonaws.com\/dev.saam.media\/files\/user\/weilerl\/Joanna%20Marsh%203.jpg",
      "id": "102445"
    }
  },
  {
    "field_biography": "<p>Karen Canova is a dedicated Luce Foundation Center volunteer and art history enthusiast.<\/p>\r\n",
    "summary": "",
    "field_job_title": "Luce Foundation Center Volunteer",
    "field_searchable_profile": false,
    "field_first_name": "Karen",
    "field_last_name": "Canova",
    "uid": "233",
    "user_picture": {
      "title": "Karen Canova profile picture",
      "alt": "A photograph of a woman with blonde hair and glasses.",
      "download_src": "https:\/\/s3.amazonaws.com\/dev.saam.media\/files\/user\/weilerl\/Karen_Canova_Headshot.png",
      "id": "103119"
    }
  },
  {
    "field_biography": "<p>An experienced program designer, audience and inclusivity specialist interested in how we can use art to tell stories.<\/p>\r\n",
    "summary": "",
    "field_job_title": "Head of Public Programs",
    "field_searchable_profile": false,
    "field_first_name": "Kayleigh",
    "field_last_name": "Bryant-Greenwell",
    "uid": "249",
    "user_picture": {
      "title": "Kayleigh Bryant-Greenwell profile picture",
      "alt": "A photograph of a woman with a green blazer and brown hair. ",
      "download_src": "https:\/\/s3.amazonaws.com\/dev.saam.media\/files\/user\/weilerl\/Kayleigh-bryant-greenwell.jpg",
      "id": "104878"
    }
  },
  {
    "field_biography": null,
    "summary": null,
    "field_job_title": null,
    "field_searchable_profile": false,
    "field_first_name": "Ashley",
    "field_last_name": "Reese",
    "uid": "250"
  },
  {
    "field_biography": null,
    "summary": null,
    "field_job_title": "Public Affairs Specialist",
    "field_searchable_profile": false,
    "field_first_name": "Katie",
    "field_last_name": "Hondorf",
    "uid": "285",
    "user_picture": {
      "title": "Katie Hondorf profile picture",
      "alt": "A photograph of a woman.",
      "download_src": "https:\/\/s3.amazonaws.com\/dev.saam.media\/files\/user\/weilerl\/Katie.jpeg",
      "id": "106559"
    }
  },
  {
    "field_biography": "<p>The Smithsonian American Art Museum has appointed Mary Savig as the Lloyd Herman Curator of Craft. Savig\u2019s duties will include research into collection objects; acquiring artworks for the museum\u2019s permanent collection; collection displays at the museum\u2019s Renwick Gallery, its branch for contemporary craft and decorative art; and organizing exhibitions about craft and maker culture. Savig\u2019s research interests include American studio craft, contemporary craft, American art and material culture. Savig begins work at the museum today. <a href=\"\/press\/2020\/06\/mary-savig-joins-curatorial-staff-smithsonian-american-art-museums-renwick-gallery\">See full staff bio<\/a>.&nbsp;<\/p>\r\n",
    "summary": "",
    "field_job_title": "Lloyd Herman Curator of Craft",
    "field_searchable_profile": true,
    "field_first_name": "Mary",
    "field_last_name": "Savig",
    "uid": "294",
    "user_picture": {
      "title": "Mary Savig profile picture",
      "alt": "A photograph of a woman with brown hair and a dress standing inside a building.",
      "download_src": "https:\/\/s3.amazonaws.com\/dev.saam.media\/files\/user\/weilerl\/IMG_0763-photo-by-libby-weiler-square.jpg",
      "id": "106059"
    }
  },
  {
    "field_biography": null,
    "summary": null,
    "field_job_title": "Public Relations Specialist",
    "field_searchable_profile": false,
    "field_first_name": "Rebekah",
    "field_last_name": "Mejorado",
    "uid": "301",
    "user_picture": {
      "title": "Rebekah Mejorado profile picture",
      "alt": "Headshot of woman with black hair",
      "download_src": "https:\/\/s3.amazonaws.com\/dev.saam.media\/files\/user\/MejoradoR%40si.edu\/Rebekah%20headshot%202021.jpg",
      "id": "109245"
    }
  },
  {
    "field_biography": "<p>Ariel O\u2019Connor is an&nbsp;Objects Conservator at the Smithsonian American Art Museum. She preserves and studies three-dimensional art objects, maintains the outdoor sculpture collection, and researches materials and technology in early bronze casting.<\/p>\r\n",
    "summary": "",
    "field_job_title": "Objects Conservator",
    "field_searchable_profile": false,
    "field_first_name": "Ariel",
    "field_last_name": "O'Connor",
    "uid": "318",
    "user_picture": {
      "title": "Ariel O'Connor profile picture",
      "alt": "A photograph of a woman standing in an art gallery with busts behind her. ",
      "download_src": "https:\/\/s3.amazonaws.com\/dev.saam.media\/files\/user\/weilerl\/Ariel-Oconnor.jpg",
      "id": "108385"
    }
  },
  {
    "field_biography": "<p>Anya Montiel was curator of American and Native American women\u2019s art and craft, a joint position between the Smithsonian American Art Museum and the National Museum of the American Indian and funded by the Smithsonian Women\u2019s History Initiative, from February 2020 to March 2021. Her responsibilities included researching collection objects, acquiring artworks for the museum\u2019s permanent collection, developing scholarly publications and digital content, and organizing exhibitions that highlight artworks by women and Native American artists at the museum\u2019s Renwick Gallery, SAAM\u2019s branch museum dedicated to contemporary craft, decorative art, and maker culture.<\/p>\r\n",
    "summary": "",
    "field_job_title": "Curator of American and Native American Women\u2019s Art and Craft",
    "field_searchable_profile": false,
    "field_first_name": "Anya",
    "field_last_name": "Montiel",
    "uid": "354",
    "user_picture": {
      "title": "Anya Montiel profile picture",
      "alt": "A photograph of a woman holding a large basket in museum collection storage.",
      "download_src": "https:\/\/s3.amazonaws.com\/dev.saam.media\/files\/user\/weilerl\/anya-montiel.JPG",
      "id": "108409"
    }
  },
  {
    "field_biography": "<p>Claudia E. Zapata is a curatorial assistant of Latinx art at the Smithsonian American Art Museum&nbsp;and is a doctoral candidate at Southern Methodist University. They received their BA and MA in art history from the University of Texas at Austin, specializing in Classic Maya art. Their research interests include curatorial methodologies of identity-based exhibitions, Chicanx and Latinx art, digital humanities, BIPOC zines, and designer toys. Zapata has curated exhibitions at Mexic-Arte Museum in Austin and other Texas institutions. They have published articles in <em>Panhandle-Plains Historical Review<\/em>, <em>JOLLAS<\/em>, <em>Aztl\u00e1n<\/em>, <em>Hemisphere<\/em>, and <em>El Mundo Zurdo 7<\/em>.<\/p>\r\n",
    "summary": "",
    "field_job_title": "Curatorial Assistant of Latinx Art",
    "field_searchable_profile": false,
    "field_first_name": "Claudia",
    "field_last_name": "Zapata",
    "uid": "355",
    "user_picture": {
      "title": "Claudia Zapata profile picture",
      "alt": "A photograph of Claudia Zapata",
      "download_src": "https:\/\/s3.amazonaws.com\/dev.saam.media\/files\/user\/weilerl\/Claudia_Zapata.jpg",
      "id": "108417"
    }
  }
]
